{
	"info": {
		"_postman_id": "75f2cd1d-c080-4d78-833d-b3cca173f877",
		"name": "Orvos-Asszisztens",
		"description": "Egy orvosi rendelő által használt szerver endpoint tesztjei.",
		"schema": "https://schema.getpostman.com/json/collection/v2.1.0/collection.json"
	},
	"item": [
		{
			"name": "Páciensek",
			"event": [
				{
					"listen": "test",
					"script": {
						"id": "37896890-f889-4cdc-8bec-258f34a9d8cf",
						"exec": [
							"pm.test(\"Status code is 200\", function () {",
							"    pm.response.to.have.status(200);",
							"});"
						],
						"type": "text/javascript"
					}
				}
			],
			"request": {
				"method": "GET",
				"header": [],
				"body": {
					"mode": "raw",
					"raw": ""
				},
				"url": {
					"raw": "https://localhost:44319/api/Patients",
					"protocol": "https",
					"host": [
						"localhost"
					],
					"port": "44319",
					"path": [
						"api",
						"Patients"
					]
				},
				"description": "Visszaadja az adatbázisban lévő összes beteget."
			},
			"response": []
		},
		{
			"name": "Páciens",
			"event": [
				{
					"listen": "test",
					"script": {
						"id": "c919fc36-ae68-4bff-9944-bcdcd4c4b36a",
						"exec": [
							"pm.test(\"Status code is 200\", function () {",
							"    pm.response.to.have.status(200);",
							"});",
							"pm.test(\"Your test name\", function () {",
							"    var jsonData = pm.response.json();",
							"    pm.expect(jsonData.name).to.eql(\"Kis Antónia\");",
							"});"
						],
						"type": "text/javascript"
					}
				}
			],
			"request": {
				"method": "GET",
				"header": [],
				"body": {
					"mode": "raw",
					"raw": ""
				},
				"url": {
					"raw": "https://localhost:44319/api/Patients/8",
					"protocol": "https",
					"host": [
						"localhost"
					],
					"port": "44319",
					"path": [
						"api",
						"Patients",
						"8"
					]
				},
				"description": "Egy beteget kér le az adatbázisból id alapján."
			},
			"response": []
		},
		{
			"name": "Páciens",
			"event": [
				{
					"listen": "test",
					"script": {
						"id": "e18e7887-71f7-45e4-a019-b436a7a861b1",
						"exec": [
							"pm.test(\"Status code is 201\", function () {",
							"    pm.response.to.have.status(201);",
							"});"
						],
						"type": "text/javascript"
					}
				}
			],
			"request": {
				"method": "POST",
				"header": [
					{
						"key": "Content-Type",
						"name": "Content-Type",
						"value": "application/json",
						"type": "text"
					}
				],
				"body": {
					"mode": "raw",
					"raw": "{\n    \"name\": \"Nagy Antónia\",\n    \"address\": \"4027 Debrecen Piac utca 1.\",\n    \"tajNumber\": 987123456,\n    \"complaint\": \"Gyakori hányinger. Hasfájás alsó régióban. Nem tud enni, mert akkor jobban fáj.\"\n}"
				},
				"url": {
					"raw": "https://localhost:44319/api/Patients",
					"protocol": "https",
					"host": [
						"localhost"
					],
					"port": "44319",
					"path": [
						"api",
						"Patients"
					]
				},
				"description": "Páciens hozzáadása az adatbázishoz."
			},
			"response": []
		},
		{
			"name": "Páciens",
			"event": [
				{
					"listen": "test",
					"script": {
						"id": "6a864ee6-caf6-48be-80ab-e24a656fe2a3",
						"exec": [
							"pm.test(\"Status code is 204\", function () {",
							"    pm.response.to.have.status(204);",
							"});"
						],
						"type": "text/javascript"
					}
				}
			],
			"request": {
				"method": "DELETE",
				"header": [],
				"body": {
					"mode": "raw",
					"raw": ""
				},
				"url": {
					"raw": "https://localhost:44319/api/Patients/13",
					"protocol": "https",
					"host": [
						"localhost"
					],
					"port": "44319",
					"path": [
						"api",
						"Patients",
						"13"
					]
				},
				"description": "Beteg törlés az adatbázisból id alapján."
			},
			"response": []
		}
	]
}